Beepo - A smart way to allocate and dispatch ambulances in Santa Monica
…
#Prediction by weeks

week_predictions <- 
  ride.Test.weekNest %>% 
    mutate("Social Factors Only" = map(.x = data, fit = reg1, .f = model_pred),
          "Social with Geo-spacial and Time Factors" = map(.x = data, fit = reg2, .f = model_pred))%>%     gather(Regression, Prediction, -data, -week) %>%
    mutate(Observed = map(data, pull, countEMS),
           Absolute_Error = map2(Observed, Prediction,  ~ abs(.x - .y)),
           MAE = map_dbl(Absolute_Error, mean, na.rm = TRUE),
           sd_AE = map_dbl(Absolute_Error, sd, na.rm = TRUE))

week_predictions

## # A tibble: 28 x 8
##     week data      Regression    Prediction Observed  Absolute_Error   MAE sd_AE
##    <dbl> <list>    <chr>         <list>     <list>    <list>         <dbl> <dbl>
##  1    41 <sf [432~ Social Facto~ <dbl [432~ <dbl [43~ <dbl [432]>     72.9  53.7
##  2    37 <sf [390~ Social Facto~ <dbl [390~ <dbl [39~ <dbl [390]>     72.3  48.7
##  3    38 <sf [404~ Social Facto~ <dbl [404~ <dbl [40~ <dbl [404]>     66.6  50.9
##  4    39 <sf [412~ Social Facto~ <dbl [412~ <dbl [41~ <dbl [412]>     75.1  51.4
##  5    40 <sf [372~ Social Facto~ <dbl [372~ <dbl [37~ <dbl [372]>     66.9  45.9
##  6    42 <sf [435~ Social Facto~ <dbl [435~ <dbl [43~ <dbl [435]>     95.7  69.5
##  7    43 <sf [463~ Social Facto~ <dbl [463~ <dbl [46~ <dbl [463]>     82.5  60.5
##  8    44 <sf [331~ Social Facto~ <dbl [331~ <dbl [33~ <dbl [331]>     77.7  51.6
##  9    46 <sf [415~ Social Facto~ <dbl [415~ <dbl [41~ <dbl [415]>     76.6  52.3
## 10    47 <sf [334~ Social Facto~ <dbl [334~ <dbl [33~ <dbl [334]>     71.9  48.4
## # ... with 18 more rows
…
